{ "items": [
{"title": "Bateria 60 amperes","thumbnail": "https://www.bateriacia.com.br/imagens/mpi/Bateria-60-amperes-01.jpg", "url": "https://www.bateriacia.com.br/amp/bateria-60-amperes"},
{"title": "Bateria automotiva","thumbnail": "https://www.bateriacia.com.br/imagens/mpi/Bateria-automotiva-01.jpg", "url": "https://www.bateriacia.com.br/amp/bateria-automotiva"},
{"title": "Bateria para caminhão","thumbnail": "https://www.bateriacia.com.br/imagens/mpi/Bateria-para-caminhao-01.jpg", "url": "https://www.bateriacia.com.br/amp/bateria-para-caminhao"},
{"title": "Bateria de carro preço","thumbnail": "https://www.bateriacia.com.br/imagens/mpi/Bateria-de-carro-preco-01.jpg", "url": "https://www.bateriacia.com.br/amp/bateria-de-carro-preco"},
{"title": "Bateria de trator","thumbnail": "https://www.bateriacia.com.br/imagens/mpi/Bateria-de-trator-01.jpg", "url": "https://www.bateriacia.com.br/amp/bateria-de-trator"},
{"title": "Bateria estacionaria","thumbnail": "https://www.bateriacia.com.br/imagens/mpi/Bateria-estacionaria-01.jpg", "url": "https://www.bateriacia.com.br/amp/bateria-estacionaria"},
{"title": "Bateria estacionária a venda","thumbnail": "https://www.bateriacia.com.br/imagens/mpi/Bateria-estacionaria-a-venda-01.jpg", "url": "https://www.bateriacia.com.br/amp/bateria-estacionaria-a-venda"},
{"title": "Bateria estacionária comprar","thumbnail": "https://www.bateriacia.com.br/imagens/mpi/Bateria-estacionaria-comprar-01.jpg", "url": "https://www.bateriacia.com.br/amp/bateria-estacionaria-comprar"},
{"title": "Bateria estacionaria industrial","thumbnail": "https://www.bateriacia.com.br/imagens/mpi/Bateria-estacionaria-industrial-01.jpg", "url": "https://www.bateriacia.com.br/amp/bateria-estacionaria-industrial"},
{"title": "Bateria estacionária onde comprar","thumbnail": "https://www.bateriacia.com.br/imagens/mpi/Bateria-estacionaria-onde-comprar-01.jpg", "url": "https://www.bateriacia.com.br/amp/bateria-estacionaria-onde-comprar"},
{"title": "Bateria estacionaria preço","thumbnail": "https://www.bateriacia.com.br/imagens/mpi/Bateria-estacionaria-preco-01.jpg", "url": "https://www.bateriacia.com.br/amp/bateria-estacionaria-preco"},
{"title": "Bateria para empilhadeira","thumbnail": "https://www.bateriacia.com.br/imagens/mpi/Bateria-para-empilhadeira-01.jpg", "url": "https://www.bateriacia.com.br/amp/bateria-para-empilhadeira"},
{"title": "Bateria para empilhadeira elétrica","thumbnail": "https://www.bateriacia.com.br/imagens/mpi/Bateria-para-empilhadeira-eletrica-01.jpg", "url": "https://www.bateriacia.com.br/amp/bateria-para-empilhadeira-eletrica"},
{"title": "Bateria para empilhadeira tracionaria","thumbnail": "https://www.bateriacia.com.br/imagens/mpi/Bateria-para-empilhadeira-tracionaria-01.jpg", "url": "https://www.bateriacia.com.br/amp/bateria-para-empilhadeira-tracionaria"},
{"title": "Bateria tracionaria","thumbnail": "https://www.bateriacia.com.br/imagens/mpi/Bateria-tracionaria-01.jpg", "url": "https://www.bateriacia.com.br/amp/bateria-tracionaria"},
{"title": "Bateria tracionaria para empilhadeira","thumbnail": "https://www.bateriacia.com.br/imagens/mpi/Bateria-tracionaria-para-empilhadeira-01.jpg", "url": "https://www.bateriacia.com.br/amp/bateria-tracionaria-para-empilhadeira"},
{"title": "Baterias automotivas preço","thumbnail": "https://www.bateriacia.com.br/imagens/mpi/Baterias-automotivas-preco-01.jpg", "url": "https://www.bateriacia.com.br/amp/baterias-automotivas-preco"},
{"title": "Baterias de automóveis preços","thumbnail": "https://www.bateriacia.com.br/imagens/mpi/Baterias-de-automoveis-precos-01.jpg", "url": "https://www.bateriacia.com.br/amp/baterias-de-automoveis-precos"},
{"title": "Baterias industriais","thumbnail": "https://www.bateriacia.com.br/imagens/mpi/Baterias-industriais-01.jpg", "url": "https://www.bateriacia.com.br/amp/baterias-industriais"},
{"title": "Baterias de caminhão","thumbnail": "https://www.bateriacia.com.br/imagens/mpi/Baterias-de-caminhao-01.jpg", "url": "https://www.bateriacia.com.br/amp/baterias-de-caminhao"},
{"title": "Carregador de bateria automotiva","thumbnail": "https://www.bateriacia.com.br/imagens/mpi/Carregador-de-bateria-automotiva-01.jpg", "url": "https://www.bateriacia.com.br/amp/carregador-de-bateria-automotiva"},
{"title": "Carregador de bateria com auxiliar de partida","thumbnail": "https://www.bateriacia.com.br/imagens/mpi/Carregador-de-bateria-com-auxiliar-de-partida-01.jpg", "url": "https://www.bateriacia.com.br/amp/carregador-de-bateria-com-auxiliar-de-partida"},
{"title": "Carregador de bateria de caminhão","thumbnail": "https://www.bateriacia.com.br/imagens/mpi/Carregador-de-bateria-de-caminhao-01.jpg", "url": "https://www.bateriacia.com.br/amp/carregador-de-bateria-de-caminhao"},
{"title": "Carregador de bateria de carro","thumbnail": "https://www.bateriacia.com.br/imagens/mpi/Carregador-de-bateria-de-carro-01.jpg", "url": "https://www.bateriacia.com.br/amp/carregador-de-bateria-de-carro"},
{"title": "Carregador de bateria de carro e moto","thumbnail": "https://www.bateriacia.com.br/imagens/mpi/Carregador-de-bateria-de-carro-e-moto-01.jpg", "url": "https://www.bateriacia.com.br/amp/carregador-de-bateria-de-carro-e-moto"},
{"title": "Carregador de bateria estacionaria","thumbnail": "https://www.bateriacia.com.br/imagens/mpi/Carregador-de-bateria-estacionaria-01.jpg", "url": "https://www.bateriacia.com.br/amp/carregador-de-bateria-estacionaria"},
{"title": "Carregador de bateria preço","thumbnail": "https://www.bateriacia.com.br/imagens/mpi/Carregador-de-bateria-preco-01.jpg", "url": "https://www.bateriacia.com.br/amp/carregador-de-bateria-preco"},
{"title": "Carregador de bateria veicular","thumbnail": "https://www.bateriacia.com.br/imagens/mpi/Carregador-de-bateria-veicular-01.jpg", "url": "https://www.bateriacia.com.br/amp/carregador-de-bateria-veicular"},
{"title": "Carregador dessulfatador","thumbnail": "https://www.bateriacia.com.br/imagens/mpi/Carregador-dessulfatador-01.jpg", "url": "https://www.bateriacia.com.br/amp/carregador-dessulfatador"},
{"title": "Comprar bateria automotiva","thumbnail": "https://www.bateriacia.com.br/imagens/mpi/Comprar-bateria-automotiva-01.jpg", "url": "https://www.bateriacia.com.br/amp/comprar-bateria-automotiva"},
{"title": "Comprar bateria de carro","thumbnail": "https://www.bateriacia.com.br/imagens/mpi/Comprar-bateria-de-carro-01.jpg", "url": "https://www.bateriacia.com.br/amp/comprar-bateria-de-carro"},
{"title": "Descarregador de baterias","thumbnail": "https://www.bateriacia.com.br/imagens/mpi/Descarregador-de-baterias-01.jpg", "url": "https://www.bateriacia.com.br/amp/descarregador-de-baterias"},
{"title": "Dessulfatador de bateria","thumbnail": "https://www.bateriacia.com.br/imagens/mpi/Dessulfatador-de-bateria-01.jpg", "url": "https://www.bateriacia.com.br/amp/dessulfatador-de-bateria"},
{"title": "Dessulfatador eletrônico","thumbnail": "https://www.bateriacia.com.br/imagens/mpi/Dessulfatador-eletronico-01.jpg", "url": "https://www.bateriacia.com.br/amp/dessulfatador-eletronico"},
{"title": "Fábrica de baterias automotivas","thumbnail": "https://www.bateriacia.com.br/imagens/mpi/Fabrica-de-baterias-automotivas-01.jpg", "url": "https://www.bateriacia.com.br/amp/fabrica-de-baterias-automotivas"},
{"title": "Fabricante de baterias para caminhão","thumbnail": "https://www.bateriacia.com.br/imagens/mpi/Fabricante-de-baterias-para-caminhao-01.jpg", "url": "https://www.bateriacia.com.br/amp/fabricante-de-baterias-para-caminhao"},
{"title": "Fornecedor de bateria estacionaria","thumbnail": "https://www.bateriacia.com.br/imagens/mpi/Fornecedor-de-bateria-estacionaria-01.jpg", "url": "https://www.bateriacia.com.br/amp/fornecedor-de-bateria-estacionaria"},
{"title": "Fornecedor de baterias automotivas","thumbnail": "https://www.bateriacia.com.br/imagens/mpi/Fornecedor-de-baterias-automotivas-01.jpg", "url": "https://www.bateriacia.com.br/amp/fornecedor-de-baterias-automotivas"},
{"title": "Fornecedor de baterias para caminhão","thumbnail": "https://www.bateriacia.com.br/imagens/mpi/Fornecedor-de-baterias-para-caminhao-01.jpg", "url": "https://www.bateriacia.com.br/amp/fornecedor-de-baterias-para-caminhao"},
{"title": "Loja de baterias","thumbnail": "https://www.bateriacia.com.br/imagens/mpi/Loja-de-baterias-01.jpg", "url": "https://www.bateriacia.com.br/amp/loja-de-baterias"},
{"title": "Loja de baterias automotivas","thumbnail": "https://www.bateriacia.com.br/imagens/mpi/Loja-de-baterias-automotivas-01.jpg", "url": "https://www.bateriacia.com.br/amp/loja-de-baterias-automotivas"},
{"title": "Loja de baterias de caminhão","thumbnail": "https://www.bateriacia.com.br/imagens/mpi/Loja-de-baterias-de-caminhao-01.jpg", "url": "https://www.bateriacia.com.br/amp/loja-de-baterias-de-caminhao"},
{"title": "Onde comprar bateria de carro","thumbnail": "https://www.bateriacia.com.br/imagens/mpi/Onde-comprar-bateria-de-carro-01.jpg", "url": "https://www.bateriacia.com.br/amp/onde-comprar-bateria-de-carro"},
{"title": "Preço carregador de bateria de carro","thumbnail": "https://www.bateriacia.com.br/imagens/mpi/Preco-carregador-de-bateria-de-carro-01.jpg", "url": "https://www.bateriacia.com.br/amp/preco-carregador-de-bateria-de-carro"},
{"title": "Preço de bateria 60 amperes","thumbnail": "https://www.bateriacia.com.br/imagens/mpi/Preco-de-bateria-60-amperes-01.jpg", "url": "https://www.bateriacia.com.br/amp/preco-de-bateria-60-amperes"},
{"title": "Preço de bateria automotiva","thumbnail": "https://www.bateriacia.com.br/imagens/mpi/Preco-de-bateria-automotiva-01.jpg", "url": "https://www.bateriacia.com.br/amp/preco-de-bateria-automotiva"},
{"title": "Preço de bateria para automóvel","thumbnail": "https://www.bateriacia.com.br/imagens/mpi/Preco-de-bateria-para-automovel-01.jpg", "url": "https://www.bateriacia.com.br/amp/preco-de-bateria-para-automovel"},
{"title": "Venda de bateria de carro","thumbnail": "https://www.bateriacia.com.br/imagens/mpi/Venda-de-bateria-de-carro-01.jpg", "url": "https://www.bateriacia.com.br/amp/venda-de-bateria-de-carro"},
{"title": "Venda de bateria para empilhadeira","thumbnail": "https://www.bateriacia.com.br/imagens/mpi/Venda-de-bateria-para-empilhadeira-01.jpg", "url": "https://www.bateriacia.com.br/amp/venda-de-bateria-para-empilhadeira"},
{"title": "Venda de bateria tracionaria","thumbnail": "https://www.bateriacia.com.br/imagens/mpi/Venda-de-bateria-tracionaria-01.jpg", "url": "https://www.bateriacia.com.br/amp/venda-de-bateria-tracionaria"}
]}